{
    "_id": "580dfe09838432eaf5cdb5d9",
    "index": 7,
    "guid": "46af66dc-cfb7-44e2-a558-6886038e969b",
    "isActive": false,
    "balance": "$2,398.48",
    "picture": "http://placehold.it/32x32",
    "age": 39,
    "eyeColor": "green",
    "name": "Weeks Byrd",
    "gender": "male",
    "company": "PIGZART",
    "email": "weeksbyrd@pigzart.com",
    "phone": "+1 (863) 517-2902",
    "address": "535 Alice Court, Bowden, Oklahoma, 2282",
    "about": "Ut ut consequat eiusmod aute magna. Ipsum esse sint nulla irure voluptate incididunt duis incididunt deserunt culpa laboris. In consectetur pariatur aliquip nisi consequat laborum labore occaecat. Duis amet consequat officia aliquip amet nostrud. Anim dolor et dolore Lorem incididunt enim amet laboris reprehenderit enim sint cillum. In voluptate amet sint nisi magna mollit incididunt Lorem ex magna dolor officia dolor. Nostrud in laborum aliqua commodo.\r\n",
    "registered": "2014-10-15T07:18:29 -03:00",
    "latitude": -1.567513,
    "longitude": -7.003752,
    "tags": [
      "excepteur",
      "velit",
      "Lorem",
      "ea",
      "duis",
      "sit",
      "enim"
    ],
    "friends": [
      {
        "id": 0,
        "name": "Nicole Kim"
      },
      {
        "id": 1,
        "name": "Coleman Buchanan"
      },
      {
        "id": 2,
        "name": "Nelda Roman"
      }
    ],
    "greeting": "Hello, Weeks Byrd! You have 3 unread messages.",
    "favoriteFruit": "banana"
  }


Hello, Prin-466
New line
Second new line
